[gd_scene load_steps=3 format=2]

[ext_resource path="res://scenes/inventoryitem.gd" type="Script" id=1]
[ext_resource path="res://sprites/hand_closed.png" type="Texture" id=3]

[node name="InventoryItem" type="TextureButton"]
anchor_right = 1.0
anchor_bottom = 1.0
margin_right = -974.0
margin_bottom = -550.0
rect_min_size = Vector2( 50, 50 )
focus_mode = 0
button_mask = 3
texture_normal = ExtResource( 3 )
expand = true
script = ExtResource( 1 )
__meta__ = {
"_edit_use_anchors_": false
}

[connection signal="gui_input" from="." to="." method="_on_InventoryItem_gui_input"]
[connection signal="mouse_entered" from="." to="." method="_on_InventoryItem_mouse_entered"]
[connection signal="mouse_exited" from="." to="." method="_on_InventoryItem_mouse_exited"]
[connection signal="pressed" from="." to="." method="_on_InventoryItem_pressed"]
